ModID, longitudinal position from edge of long fiber side [mm], LY in short side [p.e./100keV], LY in long side [p.e./100keV]
0 25 6.91983 6.95031 14.1576
0 75 7.91243 7.78522 15.9938
0 125 8.23866 7.89511 16.4247
0 175 8.45653 7.87231 16.6127
0 225 8.58158 7.81866 16.6734
0 275 8.83849 7.77742 16.8919
0 325 9.18577 7.83697 17.3158
0 375 9.51812 7.87392 17.691
0 425 9.78506 7.8541 18.031
0 475 10.0967 7.84372 18.322
0 525 10.3083 7.78973 18.4488
0 575 10.548 7.72136 18.638
0 625 10.7251 7.56471 18.6583
0 675 10.9851 7.39999 18.7827
0 725 11.2596 7.30369 18.7651
0 775 11.3901 7.14191 18.7541
0 825 11.5927 6.94811 18.8338
0 875 11.9744 6.78566 18.9282
0 925 12.5056 6.55527 19.1416
0 975 11.0352 5.85798 17.1
2 25 6.98286 7.05838 14.3822
2 75 8.17776 8.06093 16.6857
2 125 8.58022 8.23171 17.2866
2 175 8.73736 8.15251 17.3398
2 225 8.62038 7.88858 16.9633
2 275 8.34145 7.39194 16.1691
2 325 8.16851 6.98956 15.4698
2 375 7.85599 6.57348 14.6836
2 425 7.95699 6.56482 14.7552
2 475 8.38372 6.55648 15.2745
2 525 8.72149 6.61486 15.6643
2 575 8.94159 6.62675 15.858
2 625 8.95892 6.30819 15.5584
2 675 9.28655 6.31993 15.8581
2 725 9.55194 6.1768 15.9216
2 775 9.26193 5.82238 15.36
2 825 9.38255 5.50456 15.1003
2 875 9.15878 5.20199 14.5644
2 925 9.50195 5.08613 14.8337
2 975 9.01531 4.65902 13.8882
4 25 6.99759 6.58898 13.8759
4 75 8.17759 7.60844 16.1725
4 125 8.53388 7.77508 16.8264
4 175 8.83163 7.89625 17.1613
4 225 8.92015 7.65074 17.0829
4 275 8.84361 7.37071 16.6043
4 325 8.63589 7.02729 16.0325
4 375 8.64987 6.82345 15.7943
4 425 8.84909 6.80917 16.0192
4 475 9.0456 6.78303 16.1173
4 525 9.2986 6.62474 16.334
4 575 9.38066 6.55818 16.3087
4 625 9.51181 6.41652 16.1379
4 675 9.76595 6.307 16.4288
4 725 10.1862 6.2077 16.713
4 775 10.6889 6.11971 16.837
4 825 10.5598 5.87654 16.6684
4 875 10.4916 5.64281 16.38
4 925 10.51 5.26395 16.0334
4 975 6.805 3.4862 10.4042
6 25 7.00942 7.30017 14.6449
6 75 8.65484 8.64767 17.6071
6 125 9.1865 9.04106 18.7212
6 175 9.47783 9.14179 19.1783
6 225 9.71629 9.06029 19.2771
6 275 9.95747 8.92811 19.3993
6 325 9.92813 8.72175 19.2439
6 375 9.95434 8.50632 18.9345
6 425 9.85885 8.23148 18.5599
6 475 9.84691 7.8569 18.1636
6 525 9.92356 7.66437 18.0804
6 575 9.97998 7.42386 17.8326
6 625 10.213 7.29638 17.8463
6 675 10.1617 7.00704 17.5573
6 725 10.3999 6.85326 17.5513
6 775 10.7012 6.68716 17.6247
6 825 10.7807 6.52876 17.6233
6 875 11.0564 6.23408 17.5085
6 925 8.6986 4.62389 13.5805
6 975 4.80499 2.72463 7.72279
8 25 6.75562 6.91801 13.9495
8 75 8.15792 8.34709 16.8183
8 125 9.00844 8.60168 18.0155
8 175 9.08162 8.66624 18.1837
8 225 9.30535 8.49635 18.3025
8 275 9.11737 8.25841 17.8425
8 325 9.0344 7.88006 17.3921
8 375 9.03964 7.69213 17.1075
8 425 9.1997 7.51426 17.0976
8 475 9.39272 7.38246 17.1021
8 525 9.57778 7.32117 17.3524
8 575 9.82083 7.21924 17.4701
8 625 10.0059 7.11824 17.517
8 675 10.1236 6.81618 17.2961
8 725 10.4192 6.71347 17.4623
8 775 10.6084 6.526 17.5028
8 825 10.6131 6.2352 17.2178
8 875 9.70159 5.38405 15.4306
8 925 5.129 2.91834 7.94272
8 975 3.66293 2.0566 6.03775
10 25 7.83111 7.80562 16.0391
10 75 9.25658 9.01915 18.7353
10 125 9.75088 9.29245 19.5861
10 175 9.92505 9.23695 19.65
10 225 9.96068 9.03763 19.4106
10 275 9.79104 8.6326 18.8912
10 325 9.62026 8.12604 18.249
10 375 9.54277 7.85274 17.8006
10 425 9.76704 7.78935 17.9024
10 475 10.2257 7.66722 17.9789
10 525 10.1832 7.61246 18.1497
10 575 10.2671 7.39113 18.0373
10 625 10.5312 7.21168 18.1277
10 675 10.76 7.152 18.2482
10 725 11.1704 7.00742 18.6185
10 775 11.3275 6.83479 18.4661
10 825 11.2992 6.40444 18.0312
10 875 8.37379 4.58349 13.3366
10 925 5.54691 3.11969 8.9828
12 25 7.18357 7.43523 15.2975
12 75 8.5556 8.84889 17.7682
12 125 9.2245 8.96706 18.6507
12 175 9.49141 8.86406 18.9054
12 225 9.72352 8.8223 19.0648
12 275 10.0609 8.75427 19.219
12 325 10.0696 8.724 19.2736
12 375 10.2441 8.65788 19.2655
12 425 10.2872 8.28395 18.9466
12 475 10.3334 8.0309 18.812
12 525 10.6783 7.9819 19.065
12 575 10.9325 7.87789 19.2536
12 625 11.4328 7.76065 19.5742
12 675 11.6767 7.51816 19.2186
12 725 11.5101 7.18603 19.0659
12 775 11.2422 6.56962 18.1838
12 825 8.18995 4.77985 13.204
12 875 5.16816 3.06642 8.55849
14 25 6.54549 7.07126 13.9558
14 75 7.53193 8.01271 15.9183
14 125 8.03205 8.18915 16.6272
14 175 8.67668 8.34137 17.4026
14 225 8.79672 8.23922 17.4101
14 275 9.10617 8.3351 17.8494
14 325 9.69444 8.52557 18.5949
14 375 10.4019 8.86013 19.7772
14 425 10.9549 8.943 20.4051
14 475 11.4367 8.91737 20.816
14 525 11.4807 8.73401 20.6586
14 575 11.9811 8.46318 20.4964
14 625 11.5171 8.06181 20.0346
14 675 11.4154 7.37864 18.8309
14 725 10.086 6.46188 17.6361
14 775 5.82465 3.46756 9.44976
14 825 4.79408 3.03386 5.97585
16 25 7.30149 7.98337 15.6512
16 75 8.6827 9.21665 18.1918
16 125 9.05935 9.20781 18.7193
16 175 9.57027 9.16679 19.1306
16 225 9.76665 9.11554 19.2959
16 275 10.145 9.14912 19.7383
16 325 10.6633 9.28455 20.4647
16 375 11.6144 9.39416 21.152
16 425 11.7847 9.44582 21.6091
16 475 12.3888 9.42044 22.1242
16 525 12.6953 9.23522 22.2902
16 575 12.759 8.9236 22.1592
16 625 12.6637 8.61591 21.6926
16 675 10.4379 6.77662 17.9036
16 725 6.23736 4.23326 10.8014
18 25 8.1895 7.68454 16.3199
18 75 9.68142 8.91775 19.2602
18 125 10.6343 8.89157 19.7471
18 175 10.7163 8.7926 19.9862
18 225 10.8461 8.69466 20.0628
18 275 10.9846 8.61352 20.0605
18 325 11.1012 8.53384 20.0353
18 375 11.1934 8.29672 19.9587
18 425 11.2197 8.00408 19.6797
18 475 11.3162 7.65391 19.4419
18 525 11.3795 7.41214 19.0611
18 575 10.9555 6.75842 18.0562
18 625 8.77832 5.31052 14.8654
18 675 5.41187 3.34279 8.90873
20 25 8.31041 7.57846 16.1812
20 75 10.154 8.8705 19.2794
20 125 10.6287 8.78754 19.9135
20 175 10.9053 9.04117 20.4062
20 225 11.7881 8.67067 20.5026
20 275 11.3488 8.64931 20.2934
20 325 11.8841 8.72915 20.8308
20 375 12.1417 8.177 20.8881
20 425 12.2543 7.85786 20.5706
20 475 10.5191 6.30572 16.9044
20 525 5.49011 3.46929 9.16084
22 25 4.00205 3.74425 7.95228
22 75 7.5759 6.19937 13.7509
22 125 10.1602 8.18819 18.9409
22 175 10.4433 8.55006 19.3838
22 225 10.6104 8.10435 19.3058
22 275 11.4327 8.27073 20.3443
22 325 11.5964 8.12093 20.387
22 375 11.4928 7.87973 20.344
22 425 11.173 7.13876 18.593
22 475 6.99757 4.52539 11.8058
22 525 4.45288 2.9406 7.61546
24 25 6.34982 6.055 12.6484
24 75 7.46994 6.91777 14.6837
24 125 7.75618 6.99327 15.0122
24 175 8.07515 7.11628 15.5009
24 225 8.41719 7.1716 15.9184
24 275 8.63235 7.17416 16.1286
24 325 8.8772 7.15823 16.3789
24 375 9.03358 7.02796 16.4123
24 425 9.23267 6.9639 16.5417
24 475 9.30615 6.80419 16.3895
24 525 9.44713 6.67218 16.4217
24 575 9.96714 6.78039 17.1502
24 625 10.719 7.0363 18.0415
24 675 11.2348 7.06976 18.7204
24 725 11.6123 7.11342 19.1459
24 775 12.1088 7.04326 19.4255
24 825 12.6637 7.01985 20.0127
24 875 13.6613 7.04539 20.723
24 925 13.9108 6.9456 20.8802
24 975 13.0309 6.26618 19.4348
26 25 7.0297 6.94374 14.3234
26 75 8.28859 8.04289 16.8443
26 125 8.83774 8.33455 17.7699
26 175 9.12229 8.37782 18.0594
26 225 9.47272 8.47191 18.4353
26 275 9.67835 8.36038 18.5374
26 325 9.71765 8.16545 18.4204
26 375 9.77818 7.87983 18.0826
26 425 9.49145 7.49578 17.4645
26 475 9.5124 7.26128 17.1043
26 525 9.95407 7.29468 17.6848
26 575 10.3524 7.34353 18.0745
26 625 10.8294 7.25366 18.2546
26 675 10.791 7.12536 18.2681
26 725 11.2313 6.9652 18.3547
26 775 11.191 6.79616 18.2501
26 825 11.1883 6.53134 18.055
26 875 11.1718 6.24635 17.6885
26 925 11.1453 5.90083 17.3203
26 975 10.541 5.58648 16.4285
28 25 6.44265 7.27166 14.0323
28 75 7.61165 8.42817 16.4567
28 125 8.14421 8.85164 17.4008
28 175 8.42458 8.88497 17.8124
28 225 8.69127 8.87352 18.0651
28 275 8.87175 8.77783 18.1002
28 325 8.92898 8.56118 17.8607
28 375 8.9231 8.33364 17.6985
28 425 8.88111 8.04319 17.2956
28 475 8.95876 7.86259 17.1602
28 525 9.14285 7.71037 17.1813
28 575 9.50392 7.68815 17.5551
28 625 9.98628 7.62344 17.7506
28 675 9.98543 7.48122 17.8306
28 725 10.0938 7.35005 17.8152
28 775 10.299 7.15069 17.7354
28 825 10.5508 6.92599 17.8343
28 875 10.8074 6.78226 17.7279
28 925 10.3232 6.14448 16.7367
28 975 6.91977 4.04659 11.2795
30 25 6.25673 6.77366 13.218
30 75 7.34903 7.79876 15.4698
30 125 7.69613 7.90972 15.9568
30 175 7.94421 7.94281 16.184
30 225 8.19567 7.9462 16.497
30 275 8.47398 8.02631 16.8319
30 325 8.92391 8.18753 17.4945
30 375 9.38415 8.30966 18.2009
30 425 9.65987 8.4238 18.4324
30 475 9.99205 8.22897 18.6959
30 525 10.1972 8.12568 18.7586
30 575 10.6914 8.11267 19.1618
30 625 10.9187 8.04743 19.3456
30 675 11.0052 7.86106 19.3102
30 725 11.3322 7.67308 19.3463
30 775 11.2332 7.42134 19.064
30 825 11.3931 7.07321 18.7729
30 875 11.6244 6.80195 18.5429
30 925 9.31419 5.43157 15.0204
30 975 6.00238 3.59116 9.88857
32 25 6.93329 7.30576 14.6878
32 75 8.29154 8.61612 17.4841
32 125 8.96074 8.84838 18.5042
32 175 9.11709 8.96571 18.5888
32 225 9.26892 8.72082 18.5098
32 275 9.3681 8.51888 18.2597
32 325 9.11123 8.102 17.6349
32 375 9.04139 7.75402 17.2521
32 425 9.14418 7.57538 17.168
32 475 9.71984 7.54113 17.3947
32 525 9.729 7.52397 17.6397
32 575 9.96003 7.47043 17.7622
32 625 10.1627 7.23325 17.7507
32 675 10.3854 7.17552 17.8786
32 725 10.8341 7.06828 18.2808
32 775 11.021 6.91387 18.2205
32 825 11.2315 6.57089 18.0543
32 875 10.1442 5.8109 16.1997
32 925 5.46022 3.15652 8.53213
32 975 4.11354 2.36604 6.79099
34 25 6.74338 6.90526 14.0291
34 75 8.0396 8.13657 16.6395
34 125 8.51424 8.38971 17.421
34 175 8.79544 8.37527 17.719
34 225 8.85727 8.3362 17.6794
34 275 8.82132 8.00538 17.3213
34 325 8.6345 7.63376 16.641
34 375 8.59145 7.30316 16.2962
34 425 8.76155 7.18354 16.2804
34 475 9.07904 7.16647 16.6433
34 525 9.3821 7.14301 16.8793
34 575 9.49139 6.9596 16.7536
34 625 9.57668 6.75404 16.6747
34 675 9.78758 6.67671 16.727
34 725 10.057 6.55057 16.9215
34 775 10.341 6.45487 17.1223
34 825 10.4713 6.158 16.972
34 875 6.97649 3.99174 11.1804
34 925 3.90315 2.24951 6.36704
36 25 6.31043 6.65031 13.2713
36 75 7.4833 7.77645 15.5004
36 125 7.83607 7.86959 15.9448
36 175 8.06046 7.81364 16.1701
36 225 8.31097 7.85975 16.4422
36 275 8.55726 7.84381 16.7325
36 325 8.74355 7.78336 16.7926
36 375 8.97552 7.67756 16.9267
36 425 9.22082 7.60517 17.1274
36 475 9.38798 7.56427 17.17
36 525 9.68786 7.42293 17.3821
36 575 9.96655 7.3625 17.6146
36 625 10.5312 7.25931 17.8312
36 675 10.5809 7.12709 18.1205
36 725 10.9756 7.08062 18.3406
36 775 10.9906 6.87268 18.1804
36 825 8.03849 5.03093 13.4432
36 875 5.72369 3.45619 10.1153
38 25 6.71789 7.16972 14.1705
38 75 7.79947 8.13458 16.291
38 125 8.09186 8.18528 16.7051
38 175 8.4869 8.19658 16.9261
38 225 8.64059 8.08714 17.0682
38 275 8.92582 8.16693 17.4917
38 325 9.23164 8.13513 17.7187
38 375 9.52151 8.08079 17.9319
38 425 10.1122 8.09149 18.523
38 475 10.3776 8.13642 18.8437
38 525 10.9039 8.33625 19.4525
38 575 11.1771 8.06472 19.6528
38 625 11.3314 7.74795 19.4188
38 675 11.753 7.65466 19.8186
38 725 11.191 7.06528 18.8979
38 775 7.32356 4.16087 11.4523
38 825 5.74426 3.66166 9.30704
40 25 7.49622 8.42868 16.2914
40 75 8.95025 9.98457 19.2361
40 125 9.64606 10.6533 20.4394
40 175 9.91075 10.3296 20.7496
40 225 10.3185 10.2702 21.1753
40 275 10.6839 10.2309 21.4508
40 325 10.939 10.2443 21.7359
40 375 11.4285 10.1197 22.0649
40 425 11.7176 9.86147 22.1823
40 475 11.8139 9.53683 21.9172
40 525 12.0139 9.21434 21.6744
40 575 11.9081 8.78081 21.1598
40 625 11.9425 8.41025 20.812
40 675 10.3852 7.04969 18.1914
40 725 6.58733 4.44265 11.6173
42 25 7.86415 7.13266 15.3291
42 75 9.21612 8.22551 17.7694
42 125 9.71212 8.38588 18.2966
42 175 10.0673 8.37127 18.8007
42 225 10.3269 8.31496 19.1606
42 275 10.7732 8.47767 19.5633
42 325 11.3194 8.51329 20.3194
42 375 12.1102 8.67364 21.2488
42 425 12.717 8.80249 21.9325
42 475 13.09 8.64656 22.1864
42 525 13.3098 8.61014 21.86
42 575 12.9279 7.81097 21.0041
42 625 8.85632 5.33719 14.6971
42 675 7.02651 4.32372 11.8464
44 25 7.79686 7.15886 15.3782
44 75 8.91977 7.94308 17.2563
44 125 9.26655 8.00666 17.5676
44 175 9.6475 8.07511 18.212
44 225 9.97328 8.01245 18.3155
44 275 10.1974 7.7841 18.3826
44 325 10.098 7.48521 17.9307
44 375 10.0674 7.08515 17.4175
44 425 10.1997 6.75625 17.4007
44 475 8.51523 5.51323 14.7073
44 525 4.86022 3.2554 8.35152
46 25 4.71846 4.17269 9.80913
46 75 7.99619 7.05078 15.1243
46 125 11.138 9.62921 21.2577
46 175 11.9899 9.86923 22.2216
46 225 12.2971 9.76577 22.4679
46 275 13.0883 9.47579 22.5912
46 325 12.5543 9.06075 22.0533
46 375 12.4823 8.59932 21.3938
46 425 12.502 7.81163 20.4011
46 475 8.05772 5.1665 13.4888
46 525 4.80294 3.13988 8.25708
48 25 6.4287 6.28836 12.9778
48 75 7.51375 7.35031 15.1078
48 125 7.94492 7.47974 15.6943
48 175 8.32852 7.60983 16.267
48 225 8.5967 7.67763 16.5711
48 275 8.90178 7.68419 16.9148
48 325 9.22899 7.74159 17.3557
48 375 9.58117 7.77938 17.7442
48 425 9.73368 7.73834 17.9107
48 475 10.0428 7.62442 17.9859
48 525 10.0507 7.52928 17.9661
48 575 10.3269 7.43427 18.068
48 625 10.5604 7.35461 18.4026
48 675 10.9165 7.29838 18.5868
48 725 11.101 7.14932 18.5171
48 775 11.3606 6.96576 18.7102
48 825 11.582 6.82525 18.7777
48 875 12.0492 6.78286 19.1859
48 925 12.4492 6.66279 19.2324
48 975 11.8063 5.95186 17.4464
50 25 7.27927 6.88434 14.4531
50 75 8.69105 8.04252 17.1727
50 125 9.50442 8.57376 18.6156
50 175 9.85625 8.5964 19.047
50 225 10.1418 8.65663 19.3946
50 275 10.3698 8.60894 19.557
50 325 10.6506 8.42599 19.5163
50 375 10.5054 8.23519 19.1965
50 425 10.4301 7.91695 18.8069
50 475 10.5751 7.70492 18.6321
50 525 10.7644 7.67525 18.9374
50 575 11.052 7.66285 19.2658
50 625 11.374 7.6159 19.4659
50 675 11.4542 7.38452 19.2573
50 725 11.5651 7.17325 19.1216
50 775 11.6615 6.95546 19.014
50 825 11.9038 6.75395 19.0408
50 875 12.0273 6.48304 18.8755
50 925 12.0527 6.27965 18.6581
50 975 10.6787 5.42842 16.5943
52 25 6.34684 6.21662 12.7477
52 75 7.32408 7.06825 14.7439
52 125 7.61951 7.15698 15.0345
52 175 7.96131 7.34455 15.5604
52 225 8.32679 7.3743 16.076
52 275 8.62781 7.45921 16.4058
52 325 9.01625 7.58765 17.0174
52 375 9.26703 7.65103 17.3595
52 425 9.52642 7.5543 17.4939
52 475 9.64063 7.43056 17.5053
52 525 9.7518 7.29529 17.433
52 575 10.0869 7.32417 17.7947
52 625 10.5647 7.38786 18.2835
52 675 10.9205 7.30636 18.7173
52 725 11.3681 7.26133 19.0312
52 775 11.718 7.08886 19.1095
52 825 12.1238 7.00488 19.326
52 875 12.1439 6.8013 19.4227
52 925 12.2519 6.33885 18.5081
52 975 8.12646 4.33247 12.6915
54 25 6.86387 6.82491 14.0463
54 75 8.02777 7.85521 16.349
54 125 8.38833 7.97339 16.848
54 175 8.65673 8.01676 17.0907
54 225 8.84805 8.0375 17.2686
54 275 9.02305 7.90844 17.4142
54 325 9.17047 7.80055 17.4209
54 375 9.26023 7.65261 17.3886
54 425 9.20403 7.38859 16.9408
54 475 9.18354 7.15767 16.6707
54 525 9.3515 7.00822 16.7224
54 575 9.73171 7.02476 17.1108
54 625 10.0459 7.04321 17.4896
54 675 10.197 6.91233 17.4717
54 725 10.2453 6.59887 17.2137
54 775 10.4606 6.52847 17.3256
54 825 10.9325 6.37136 17.6761
54 875 11.0525 6.17132 17.5852
54 925 8.88557 4.72629 13.9878
54 975 5.48552 3.06145 8.76828
56 25 6.41362 6.31776 12.8883
56 75 7.71913 7.39582 15.3642
56 125 8.07273 7.57717 15.9506
56 175 8.307 7.61969 16.1918
56 225 8.57427 7.56833 16.4818
56 275 8.79765 7.60653 16.8205
56 325 9.16783 7.68639 17.2403
56 375 9.36163 7.61168 17.3942
56 425 9.59476 7.57949 17.5809
56 475 9.82391 7.48231 17.5493
56 525 10.0831 7.38557 17.6816
56 575 10.4235 7.41868 18.248
56 625 10.8751 7.44148 18.7243
56 675 11.342 7.45708 19.2696
56 725 12.0663 7.37519 19.4972
56 775 12.3549 7.15925 19.5632
56 825 12.0907 6.8126 19.3151
56 875 11.4341 6.18436 17.9715
56 925 6.65538 3.60995 10.5481
56 975 5.67543 3.02051 9.20015
58 25 6.50102 7.11681 13.8601
58 75 7.7406 8.43844 16.4841
58 125 8.24032 8.66344 17.2658
58 175 8.5639 8.68833 17.6292
58 225 8.81786 8.63904 17.7855
58 275 9.05627 8.67648 18.0843
58 325 9.28713 8.64517 18.3057
58 375 9.58351 8.61612 18.4885
58 425 9.77728 8.48778 18.6395
58 475 9.99001 8.40384 18.7724
58 525 10.2175 8.35047 18.9921
58 575 10.4718 8.22395 19.0661
58 625 10.7523 8.06769 19.234
58 675 11.033 7.91107 19.2155
58 725 11.0049 7.63047 19.0605
58 775 11.2306 7.30699 18.9515
58 825 11.2822 7.04679 18.6395
58 875 8.55787 5.24378 14.1728
58 925 5.87745 3.6624 9.73917
60 25 6.7158 7.07564 14.0715
60 75 7.91833 8.07999 16.3233
60 125 8.32631 8.19488 16.8671
60 175 8.51998 8.25124 17.2214
60 225 8.70867 8.19469 17.2834
60 275 9.04772 8.26326 17.6666
60 325 9.25219 8.11505 17.7311
60 375 9.33663 8.03905 17.7492
60 425 9.54997 7.8755 17.6592
60 475 9.72695 7.76671 17.8523
60 525 10.0163 7.73838 18.0616
60 575 10.3525 7.72997 18.4527
60 625 10.9772 7.63543 18.65
60 675 10.9224 7.50621 18.7785
60 725 11.338 7.315 18.8618
60 775 11.476 7.02401 18.8522
60 825 9.02089 5.33498 14.2658
60 875 6.13531 3.76264 10.1295
62 25 8.21554 8.1071 16.7489
62 75 9.45883 9.22019 19.0706
62 125 10.3937 9.17384 19.7772
62 175 10.2823 9.0727 19.6929
62 225 10.4552 8.90612 19.7421
62 275 10.5973 8.86187 19.784
62 325 10.6753 8.7626 19.8138
62 375 10.8518 8.53413 19.7078
62 425 10.915 8.32304 19.6076
62 475 11.0503 8.11945 19.5171
62 525 11.3352 7.96959 19.6366
62 575 11.5925 7.87533 19.7572
62 625 11.825 7.63384 19.6584
62 675 11.9289 7.40305 19.6637
62 725 11.5192 6.83877 18.7104
62 775 6.65804 3.7878 10.9823
62 825 5.65889 3.20163 9.05938
64 25 7.24832 7.8316 15.5028
64 75 8.53993 9.13529 18.0798
64 125 9.12982 9.14182 18.7842
64 175 9.54315 9.1095 19.1005
64 225 9.89269 9.11575 19.5432
64 275 10.1351 9.06693 19.655
64 325 10.4579 9.10948 19.9347
64 375 10.79 9.02238 20.2983
64 425 11.569 9.09497 20.7556
64 475 11.6989 9.04081 21.2416
64 525 12.1997 8.93461 21.5419
64 575 12.4042 8.67979 21.4393
64 625 12.4447 8.29945 21.1307
64 675 10.1538 6.72343 18.2311
64 725 6.55814 4.3285 11.4934
66 25 8.01857 7.70385 16.1277
66 75 9.38815 8.99281 19.0189
66 125 9.97789 8.99671 19.4915
66 175 10.385 8.87259 19.6245
66 225 10.8661 9.12277 20.5823
66 275 11.8163 9.22131 21.0513
66 325 11.8683 9.25643 21.5934
66 375 12.1683 9.34912 22.034
66 425 12.4351 9.10396 21.9874
66 475 13.027 8.84054 22.446
66 525 12.7699 8.54458 21.8652
66 575 12.8484 8.03631 21.1776
66 625 9.57557 5.92211 16.442
66 675 6.71715 4.23512 11.3722
68 25 8.24533 7.27769 15.6331
68 75 9.16754 8.17101 17.7907
68 125 9.56017 8.0321 18.039
68 175 9.99352 7.99709 18.4713
68 225 10.1544 8.04651 19.1515
68 275 10.3659 8.11906 18.837
68 325 10.5129 7.59337 18.5987
68 375 10.4549 7.22223 18.0272
68 425 10.5914 6.91679 17.8905
68 475 8.67051 5.44851 14.5584
68 525 4.93242 3.23081 8.44202
70 25 3.6681 2.96184 7.12094
70 75 5.77271 4.56074 11.4741
70 125 9.44747 7.63941 17.7112
70 175 10.4238 7.47129 19.047
70 225 11.2561 8.63954 20.1238
70 275 10.6508 8.24812 19.4779
70 325 11.7771 8.02849 22.7525
70 375 11.6071 8.83107 21.6448
70 425 11.8884 7.69444 19.7857
70 475 7.72052 4.69795 13.2771
70 525 4.98737 2.27776 7.41014
72 25 6.29093 6.15115 12.6927
72 75 7.42221 7.14546 14.8739
72 125 7.51846 7.06999 14.8557
72 175 7.78037 7.064 15.1949
72 225 8.14807 7.14565 15.6133
72 275 8.48242 7.27967 16.0393
72 325 8.99656 7.45824 16.8811
72 375 9.43216 7.59259 17.455
72 425 9.86268 7.65821 17.9603
72 475 9.96904 7.53579 17.9636
72 525 10.0871 7.37342 17.8825
72 575 10.2948 7.28574 17.9683
72 625 10.5407 7.18764 18.0365
72 675 10.7948 7.14459 18.2606
72 725 11.0528 7.03662 18.4793
72 775 11.2682 6.94027 18.5929
72 825 11.8113 6.81709 18.9133
72 875 12.114 6.73453 19.1789
72 925 12.0175 6.49987 18.7773
72 975 11.5442 5.99745 18.3109
74 25 6.27847 5.9515 12.4578
74 75 7.33871 6.71386 14.3127
74 125 7.496 6.63549 14.3919
74 175 7.58539 6.60219 14.4493
74 225 7.73596 6.52139 14.5278
74 275 8.04663 6.56166 14.9054
74 325 8.90961 7.06357 16.3948
74 375 9.69926 7.42013 17.5395
74 425 10.0129 7.44084 17.887
74 475 10.2496 7.35723 18.0044
74 525 10.5549 7.36565 18.4014
74 575 11.3055 7.37141 18.9124
74 625 11.5411 7.45014 19.4314
74 675 11.8418 7.39266 19.6504
74 725 12.0984 7.2869 19.8852
74 775 12.3994 7.15565 19.897
74 825 12.5756 6.92746 20.066
74 875 12.9757 6.85388 20.3261
74 925 13.2344 6.5962 20.2405
74 975 12.3003 5.90709 18.5852
76 25 7.00219 6.8596 14.3032
76 75 8.16862 7.85594 16.4727
76 125 8.44572 7.93722 16.8953
76 175 8.62313 7.85152 16.9808
76 225 8.83705 7.85039 17.1719
76 275 9.10094 7.83195 17.3722
76 325 9.23382 7.73204 17.4502
76 375 9.37954 7.51636 17.2541
76 425 9.21108 7.26953 16.8975
76 475 9.27684 7.11059 16.7378
76 525 9.52339 7.00232 16.8722
76 575 9.77536 7.02163 17.1443
76 625 10.0431 6.8872 17.3665
76 675 10.2444 6.78642 17.4479
76 725 10.2803 6.55782 17.2715
76 775 10.6078 6.49291 17.4156
76 825 11.0582 6.45904 17.8066
76 875 11.3035 6.22556 17.7792
76 925 10.865 5.94158 17.0218
76 975 7.46918 3.88688 11.4201
78 25 6.47472 6.37911 13.1811
78 75 7.75452 7.48726 15.578
78 125 8.09835 7.67157 16.0869
78 175 8.24808 7.49164 16.0836
78 225 8.44111 7.42377 16.168
78 275 8.62601 7.44966 16.382
78 325 8.96383 7.48625 16.7817
78 375 9.23099 7.50847 17.1095
78 425 9.50761 7.43857 17.3822
78 475 9.7043 7.35682 17.3973
78 525 9.885 7.20317 17.4269
78 575 10.1587 7.18117 17.6788
78 625 10.508 7.12984 17.9894
78 675 10.8378 7.09896 18.321
78 725 11.152 6.99997 18.4955
78 775 11.4143 6.9191 18.6993
78 825 11.7649 6.82107 18.8777
78 875 12.3095 6.61539 19.1921
78 925 10.0574 5.32497 15.7365
78 975 6.36232 3.54534 10.1423
80 25 6.99413 6.2871 13.6178
80 75 8.47921 7.47533 16.2258
80 125 8.82367 7.58669 16.7625
80 175 9.10995 7.5737 17.1041
80 225 9.2772 7.54973 17.2062
80 275 9.57971 7.52035 17.5291
80 325 9.92883 7.59038 17.8954
80 375 10.2117 7.55623 18.1814
80 425 10.5342 7.49348 18.4295
80 475 10.6369 7.35574 18.3948
80 525 10.9519 7.37509 18.6012
80 575 11.2586 7.27609 18.8898
80 625 11.626 7.20151 19.205
80 675 12.1628 7.11087 19.4884
80 725 12.148 6.93307 19.4604
80 775 12.5125 6.73287 19.4264
80 825 12.5837 6.57807 19.5067
80 875 11.7815 6.00049 18.1612
80 925 7.32182 3.6118 11.0581
80 975 6.23153 3.07225 9.70796
82 25 6.90645 6.70599 13.9677
82 75 8.12785 7.68071 16.1018
82 125 8.49594 7.85655 16.721
82 175 8.75854 7.86163 16.9207
82 225 8.95723 7.81134 17.0904
82 275 9.24542 7.80701 17.4109
82 325 9.52299 7.81322 17.6812
82 375 9.88555 7.78358 18.0318
82 425 10.0266 7.76817 17.9917
82 475 10.2205 7.54674 18.1596
82 525 10.3996 7.47261 18.3402
82 575 10.7072 7.39121 18.4625
82 625 11.1132 7.3533 18.831
82 675 11.2724 7.15235 18.749
82 725 11.41 6.89801 18.6407
82 775 11.6302 6.7618 18.7159
82 825 11.7616 6.44047 18.3759
82 875 9.35721 4.88373 14.357
82 925 6.19592 3.42366 9.90829
84 25 6.91156 6.31448 13.546
84 75 8.20567 7.35438 15.867
84 125 8.57638 7.43622 16.2949
84 175 8.83539 7.42944 16.522
84 225 9.07209 7.50459 16.8574
84 275 9.40921 7.45588 17.2085
84 325 9.72665 7.47314 17.4938
84 375 9.93402 7.41615 17.7145
84 425 10.1474 7.20201 17.6726
84 475 10.3962 7.17056 17.8548
84 525 10.6855 7.0747 18.0966
84 575 10.955 7.03496 18.355
84 625 11.1917 6.88182 18.4967
84 675 11.415 6.66791 18.3579
84 725 11.6466 6.58549 18.5251
84 775 11.8601 6.492 18.3878
84 825 11.1331 5.53836 16.9372
84 875 5.97045 3.14193 9.59577
86 25 6.64079 7.01161 13.9115
86 75 7.93621 8.21617 16.4757
86 125 8.57859 8.35091 16.9908
86 175 8.64783 8.29451 17.1788
86 225 8.92919 8.1804 17.345
86 275 9.1079 8.4353 17.6638
86 325 9.32728 8.07798 17.6974
86 375 9.63849 7.99989 17.9313
86 425 9.91013 7.93931 18.3506
86 475 10.0829 7.75861 18.2602
86 525 10.4641 7.71119 18.5072
86 575 10.5543 7.46962 18.3739
86 625 10.801 7.31964 18.5187
86 675 11.0458 7.12059 18.47
86 725 10.7564 6.59479 17.9168
86 775 6.7859 3.97451 10.8963
86 825 5.50367 3.4151 9.05341
88 25 7.1574 7.98133 15.2646
88 75 8.49095 9.1725 18.0261
88 125 9.04873 9.37528 18.9044
88 175 9.59962 9.60759 19.5775
88 225 10.0929 9.67542 19.8218
88 275 10.0611 9.39123 19.8705
88 325 10.1606 9.11924 19.6875
88 375 10.4801 8.94729 19.7645
88 425 10.7794 8.87709 20.0561
88 475 11.17 8.78087 20.3848
88 525 11.3815 8.60666 20.4467
88 575 11.6178 8.29893 20.4613
88 625 12.116 7.88979 20.1341
88 675 9.96644 6.48874 17.1571
88 725 6.5682 4.40407 11.2057
90 25 8.132 7.85027 16.2279
90 75 9.3434 8.81348 18.5795
90 125 10.0737 9.02592 19.1146
90 175 9.94354 8.88688 19.1341
90 225 10.0575 8.56865 19.0718
90 275 10.221 8.47787 18.9691
90 325 10.5679 8.39292 19.0993
90 375 10.5921 8.11667 19.1037
90 425 10.6513 7.8871 19.0108
90 475 10.9412 7.73398 19.0013
90 525 11.0815 7.42534 18.7793
90 575 10.8643 7.04336 18.2258
90 625 7.34902 4.71024 12.5022
90 675 5.37068 3.41169 9.11413
92 25 7.24317 6.86391 14.3726
92 75 8.65252 8.09735 17.0854
92 125 9.13685 8.12808 17.7373
92 175 9.46788 8.05899 17.679
92 225 9.72153 8.50327 18.2566
92 275 10.0133 7.94422 18.3772
92 325 10.4063 8.05107 18.829
92 375 10.6926 7.76608 18.7411
92 425 10.7208 7.29236 18.2568
92 475 8.80067 5.67933 14.7408
92 525 5.23335 3.53235 9.08793
94 25 3.96052 4.16818 8.21087
94 75 6.20903 6.46022 13.031
94 125 8.54352 8.83927 17.6099
94 175 9.22547 9.33681 18.5081
94 225 9.52132 9.09052 18.9578
94 275 9.98486 9.05429 19.4263
94 325 10.1175 8.85329 19.5057
94 375 10.4594 8.72661 19.4965
94 425 10.2534 8.05941 18.4988
94 475 7.1485 5.47795 12.7742
94 525 4.48785 3.51217 8.27471
100 25 6.86452 7.00595 14.1619
100 75 8.08693 8.2503 16.7664
100 125 8.56047 8.53011 17.5765
100 175 8.91112 8.53751 17.9664
100 225 9.19617 8.50109 18.2167
100 275 9.39579 8.4833 18.3805
100 325 9.59124 8.36977 18.4283
100 375 9.56655 8.14056 18.2715
100 425 9.46617 7.83376 17.7695
100 475 9.54364 7.60843 17.4708
100 525 9.84796 7.53954 17.6472
100 575 9.84083 7.4258 17.6472
100 625 9.99845 7.29659 17.6825
100 675 10.1936 7.09016 17.5792
100 725 10.2538 6.89646 17.5981
100 775 10.5334 6.78702 17.7775
100 825 10.9428 6.75573 18.042
100 875 11.2574 6.61316 18.2586
102 25 7.24185 7.3416 15.0701
102 75 8.56855 8.49702 17.5453
102 125 9.05488 8.71198 18.255
102 175 9.2977 8.8356 18.612
102 225 9.57847 8.75947 18.8323
102 275 9.90045 8.7145 19.0906
102 325 9.94129 8.58568 19.1133
102 375 10.024 8.37854 18.8552
102 425 9.96159 8.11983 18.5311
102 475 9.9554 7.83492 18.1711
102 525 10.152 7.68194 18.2208
102 575 10.2845 7.53091 18.2729
102 625 10.515 7.40552 18.3171
102 675 10.6446 7.20344 18.2351
102 725 10.9058 7.08158 18.3549
102 775 11.1698 6.91178 18.5719
102 825 11.5875 6.84345 18.8751
102 875 12.1158 6.94854 19.432
104 25 6.99626 6.3164 13.5479
104 75 8.0514 7.18363 15.5371
104 125 8.42471 7.37526 16.1843
104 175 8.92567 7.5232 16.7757
104 225 9.35251 7.64313 17.407
104 275 9.72872 7.73858 17.8767
104 325 10.0503 7.78943 18.2657
104 375 10.3146 7.75423 18.5148
104 425 10.6309 7.73713 18.8598
104 475 11.0319 7.68534 19.1567
104 525 11.1748 7.52573 19.1311
104 575 11.2893 7.34558 19.0414
104 625 11.3614 7.06926 18.8327
104 675 11.5052 6.97097 18.7715
104 725 11.8857 6.86804 19.2022
104 775 12.4422 6.73976 19.1978
104 825 12.6397 6.63701 19.6069
104 875 12.8605 6.50235 19.6847
106 25 6.36952 6.0213 12.6345
106 75 7.51537 6.91071 14.7102
106 125 7.85653 7.05574 15.1751
106 175 8.24493 7.1867 15.8187
106 225 8.60365 7.30613 16.2882
106 275 8.91656 7.35855 16.6223
106 325 9.22752 7.33316 16.9675
106 375 9.3836 7.28385 17.0135
106 425 9.5758 7.16997 17.1182
106 475 9.86839 7.09742 17.3298
106 525 9.93575 6.92188 17.2462
106 575 10.1407 6.70923 17.0495
106 625 10.0727 6.54495 16.9567
106 675 10.4707 6.48738 17.2243
106 725 10.7938 6.39532 17.4956
106 775 11.2196 6.3262 17.8099
106 825 11.421 6.1798 17.97
108 25 7.16459 7.13366 14.6889
108 75 8.33024 8.25938 17.0538
108 125 8.86713 8.37944 17.616
108 175 8.95449 8.33713 17.835
108 225 8.92711 8.14351 17.5182
108 275 8.78791 7.797 17.0041
108 325 8.71453 7.46805 16.5824
108 375 8.76622 7.22636 16.3382
108 425 8.8343 7.05719 16.2778
108 475 9.0822 7.04743 16.461
108 525 9.37903 6.95243 16.6594
108 575 9.58681 6.87234 16.7777
108 625 9.81383 6.74503 16.8775
108 675 10.2269 6.76084 17.3438
108 725 10.6258 6.61911 17.5562
108 775 11.0599 6.56514 17.9266
108 825 11.0964 6.40259 17.8894
110 25 6.88865 6.34386 13.5378
110 75 8.40701 7.62934 16.4339
110 125 9.00358 7.91996 17.422
110 175 9.28315 7.89833 17.7019
110 225 9.52384 7.83047 17.9096
110 275 9.52634 7.60678 17.5824
110 325 9.53203 7.38306 17.3762
110 375 9.57647 7.16961 17.194
110 425 9.63833 6.96045 17.0292
110 475 10.1098 6.98776 17.4786
110 525 10.3706 6.90991 17.7122
110 575 11.1106 6.76694 17.7962
110 625 10.8246 6.66696 17.8587
110 675 11.3095 6.58656 18.1656
110 725 11.6721 6.46416 18.379
110 775 11.6259 6.27209 18.1519
112 25 7.78732 7.12596 15.2836
112 75 9.08285 8.14261 17.6128
112 125 9.56093 8.38675 18.3836
112 175 9.78855 8.3107 18.577
112 225 10.0646 8.21849 18.6706
112 275 10.2737 8.40541 18.9639
112 325 10.4244 8.05257 18.8737
112 375 10.4882 7.83348 18.7283
112 425 10.7258 7.64968 18.7409
112 475 10.84 7.50598 18.7904
112 525 11.1985 7.50054 19.178
112 575 11.6193 7.43083 19.3845
112 625 11.8072 7.24456 19.4638
112 675 11.9702 7.10183 19.3553
112 725 12.2328 6.86738 19.5116
114 25 7.81079 7.95495 16.2082
114 75 9.00954 9.16075 18.5607
114 125 9.41731 9.21961 19.0923
114 175 9.65049 9.23833 19.3104
114 225 10.0389 9.3845 19.7187
114 275 10.4613 9.30471 20.3262
114 325 10.6818 9.32219 20.3365
114 375 10.7351 8.97127 20.056
114 425 10.7292 8.59144 19.7549
114 475 10.9964 8.48312 19.8317
114 525 11.3031 8.27596 19.9228
114 575 11.9377 8.20724 20.2669
114 625 11.9575 8.04565 20.4956
114 675 12.4362 7.8134 20.5235
116 25 7.10004 7.42439 14.921
116 75 8.30122 8.54444 17.2003
116 125 8.50987 8.54099 17.4684
116 175 8.7961 8.57054 17.7455
116 225 9.34253 8.75133 18.5057
116 275 9.89691 8.86388 19.2145
116 325 10.3581 8.93345 19.9129
116 375 10.7365 8.98052 20.1476
116 425 11.0805 8.72502 20.2581
116 475 11.2548 8.621 20.3712
116 525 11.5318 8.45114 20.4956
116 575 11.766 8.11607 20.3449
116 625 11.8966 7.83026 20.7574
118 25 7.05537 7.64945 15.0061
118 75 8.35066 9.0384 17.7181
118 125 8.5917 8.85396 17.7903
118 175 8.83025 8.80491 18.0516
118 225 9.21591 8.70448 18.3433
118 275 9.42878 8.61751 18.4367
118 325 9.64216 8.41184 18.4895
118 375 9.96079 8.26388 18.6103
118 425 10.0543 8.09429 18.4938
118 475 10.4649 7.99342 18.8242
118 525 10.9782 7.84658 19.204
120 25 6.90178 6.61563 13.8217
120 75 8.21954 7.62599 16.1018
120 125 8.49464 7.66792 16.6101
120 175 8.78223 7.61757 16.7446
120 225 9.10736 7.61532 17.046
120 275 9.48994 7.58352 17.3234
120 325 9.91923 7.59157 18.009
120 375 10.3691 7.55058 18.3004
120 425 10.9316 7.531 18.7198
120 475 11.2805 7.64925 19.1732
122 25 7.24033 7.3846 14.9168
122 75 8.8205 8.76095 18.035
122 125 9.3508 9.15302 18.9661
122 175 9.67668 9.24687 19.4761
122 225 9.94631 9.23524 19.8001
122 275 10.1373 9.18351 19.9031
122 325 10.2074 8.9791 19.8496
122 375 10.2856 8.78451 19.6037
122 425 10.1931 8.39265 19.0586
122 475 9.96498 8.05363 18.4562
122 525 10.2198 7.79721 18.269
122 575 10.1188 7.67957 18.2988
122 625 10.6141 7.55372 18.5796
122 675 10.991 7.45265 18.4582
122 725 10.6561 7.18513 18.3821
122 775 10.873 7.00679 18.2633
122 825 10.9848 6.73059 18.1199
122 875 11.1048 6.53287 17.9817
124 25 7.13793 6.90453 14.4357
124 75 8.56682 8.14307 17.1503
124 125 9.16384 8.521 18.1748
124 175 9.60976 8.60175 18.7638
124 225 9.78342 8.63435 18.8661
124 275 9.91487 8.55759 18.9259
124 325 10.0766 8.29446 18.7982
124 375 10.114 8.1195 18.767
124 425 10.0018 7.86147 18.2904
124 475 9.92194 7.56029 17.9639
124 525 9.97878 7.32532 17.6875
124 575 10.0145 7.10914 17.5623
124 625 10.1178 6.89818 17.3882
124 675 10.0107 6.56612 16.9643
124 725 10.2511 6.44601 16.972
124 775 10.5538 6.28642 17.0102
124 825 10.4775 6.01928 16.8134
124 875 10.8351 5.8517 17.0669
126 25 6.85307 5.95487 13.1043
126 75 8.06683 6.91021 15.2258
126 125 8.3998 7.09765 15.8269
126 175 8.90603 7.29396 16.6022
126 225 9.4511 7.45342 17.2326
126 275 9.82061 7.54564 17.7082
126 325 10.0582 7.58152 18.0588
126 375 10.3694 7.54201 18.4737
126 425 10.7642 7.57459 18.8081
126 475 11.0824 7.53418 19.0857
126 525 11.2594 7.5315 19.2071
126 575 11.4361 7.25298 19.0779
126 625 11.4632 7.08262 18.9356
126 675 12.0901 6.93793 19.1549
126 725 12.5907 6.9227 19.5496
126 775 12.92 6.73753 19.6417
126 825 13.1054 6.61314 19.9652
126 875 13.0531 6.41433 19.8126
128 25 7.15842 6.56217 14.1096
128 75 8.81091 7.77381 16.8791
128 125 9.15586 7.97978 17.53
128 175 9.33237 8.00881 17.7549
128 225 9.53988 7.9196 17.9339
128 275 9.63226 7.81155 17.8504
128 325 9.76324 7.58232 17.7688
128 375 9.76117 7.41362 17.6468
128 425 9.55681 7.11143 17.0005
128 475 9.83169 7.04346 17.2892
128 525 10.1098 6.98489 17.5082
128 575 10.4132 6.9337 17.6739
128 625 10.7551 6.87379 18.0198
128 675 11.1406 6.79888 18.2648
128 725 11.2003 6.53383 18.0994
128 775 11.2177 6.31383 17.8786
128 825 11.7075 6.2814 18.2783
130 25 7.07269 6.34709 13.8505
130 75 8.25612 7.37386 15.9689
130 125 8.67886 7.51441 16.4967
130 175 8.86356 7.50021 16.7318
130 225 9.21785 7.45236 16.8889
130 275 9.20228 7.3094 16.8833
130 325 9.30487 7.17173 16.8119
130 375 9.43516 7.01729 16.7789
130 425 9.68411 6.97662 17.0236
130 475 10.2468 6.97548 17.4005
130 525 10.3857 6.94031 17.7275
130 575 10.646 6.85336 17.8883
130 625 10.8049 6.69793 17.9159
130 675 11.2366 6.61191 18.2325
130 725 11.8108 6.55992 18.8681
130 775 12.0396 6.53003 18.9106
130 825 12.8253 6.35587 19.0844
132 25 6.86754 6.07732 13.156
132 75 8.05327 7.06855 15.4749
132 125 8.61419 7.36474 16.347
132 175 8.89345 7.39241 16.7103
132 225 9.22696 7.38549 16.9356
132 275 9.48867 7.36428 17.2144
132 325 9.99251 7.55168 18.0287
132 375 10.9654 7.74323 18.8688
132 425 11.3846 7.7884 19.4246
132 475 11.5682 7.76782 19.6792
132 525 11.5745 7.55025 19.6817
132 575 12.2048 7.41814 19.784
132 625 12.5921 7.29046 19.9107
132 675 12.4299 7.09942 19.9511
132 725 12.488 6.78819 19.7054
132 775 12.5488 6.36446 18.8482
134 25 6.70524 6.27928 13.3324
134 75 7.52195 6.90714 14.7885
134 125 7.7084 7.01984 15.1724
134 175 8.3008 7.31007 15.7361
134 225 8.73744 7.49496 16.5984
134 275 9.32407 7.64275 17.3576
134 325 9.53618 7.65058 17.5901
134 375 9.87954 7.63393 17.9261
134 425 10.0704 7.60758 18.0397
134 475 10.3137 7.43091 18.167
134 525 10.4105 7.30018 18.0946
134 575 10.6923 7.13334 18.1274
134 625 11.2619 7.05671 18.5291
134 675 11.938 6.98167 18.938
134 725 11.9514 6.87447 19.2597
136 25 7.66005 7.44846 15.5337
136 75 9.01419 8.32274 17.8327
136 125 9.23555 8.27415 17.9529
136 175 9.41166 8.23045 18.116
136 225 9.54853 8.1559 18.0995
136 275 9.82164 8.11917 18.3902
136 325 10.0795 8.05322 18.4039
136 375 10.2579 7.91391 18.5478
136 425 10.3955 7.75961 18.4802
136 475 10.7426 7.72562 18.7836
136 525 11.1603 7.64055 19.134
136 575 11.3637 7.55309 19.3296
136 625 11.726 7.39958 19.4775
136 675 12.0404 7.18374 19.6256
138 25 8.10819 8.20951 16.7193
138 75 9.70829 9.45325 19.7018
138 125 10.116 9.51923 20.1648
138 175 10.2678 9.35828 20.1216
138 225 10.748 9.55679 20.7536
138 275 11.3016 9.69803 21.531
138 325 11.9272 10.1909 22.2733
138 375 12.24 9.78156 22.5734
138 425 12.6427 9.76307 22.8675
138 475 12.933 9.47796 22.8358
138 525 13.2442 9.33627 23.0627
138 575 13.6651 8.95909 22.7983
138 625 13.8193 8.53766 22.3663
140 25 7.65608 8.06034 16.1065
140 75 9.08908 8.98415 18.6042
140 125 9.53454 9.0666 19.0947
140 175 9.73006 8.95943 19.1787
140 225 9.90481 8.87931 19.2511
140 275 10.127 8.74182 19.2882
140 325 10.489 8.65431 19.5558
140 375 10.9554 8.66907 19.8982
140 425 11.0272 8.43253 19.9117
140 475 11.4781 8.2353 20.0386
140 525 11.7798 8.21759 20.2587
142 25 7.96945 6.42793 14.764
142 75 9.63526 7.52601 17.5943
142 125 10.1178 7.65169 18.1788
142 175 10.3736 7.64669 18.4574
142 225 10.5886 7.60552 18.5525
142 275 10.9367 7.56474 18.9094
142 325 11.4009 7.56047 19.3518
142 375 11.9831 7.58944 19.6948
142 425 12.4239 7.43995 20.1101
142 475 12.9881 7.38793 20.8674
144 25 6.80952 6.12183 13.2439
144 75 7.96736 7.05315 15.2458
144 125 8.32231 7.20937 15.8073
144 175 8.64564 7.23685 16.1765
144 225 8.98599 7.39267 16.7678
144 275 9.44715 7.55049 17.4681
144 325 9.79711 7.58277 17.9797
144 375 9.98931 7.5331 17.9696
144 425 10.3795 7.49109 18.3709
144 475 10.6087 7.44789 18.565
144 525 10.8804 7.41561 18.8202
144 575 11.1302 7.28422 18.9126
144 625 11.068 7.12078 18.671
144 675 10.9973 6.80908 18.3119
144 725 11.0524 6.54288 18.1547
144 775 11.6329 6.48535 18.29
144 825 11.3231 6.03992 17.5758
144 875 10.7226 5.55791 16.6317
146 25 6.68886 6.44068 13.483
146 75 7.82706 7.45277 15.5968
146 125 8.21901 7.60985 16.2583
146 175 8.57066 7.74984 16.7548
146 225 8.8922 7.80814 17.125
146 275 9.28361 7.9122 17.6631
146 325 9.67039 7.87437 17.8594
146 375 9.72413 7.81053 18.0256
146 425 10.1965 7.77749 18.2735
146 475 10.2879 7.68343 18.5025
146 525 10.6394 7.69648 18.8808
146 575 10.9676 7.72014 19.2449
146 625 11.2152 7.60396 19.2507
146 675 11.4786 7.42334 19.3361
146 725 11.7021 7.30321 19.4512
146 775 12.2833 7.22048 19.7098
146 825 12.1456 6.96797 19.5194
146 875 12.9052 6.85959 19.9612
148 25 6.82446 6.60793 13.7736
148 75 8.059 7.72837 16.275
148 125 8.55278 7.97741 17.015
148 175 9.02394 7.97707 17.263
148 225 9.08276 7.96826 17.584
148 275 9.27418 7.98106 17.7602
148 325 9.48619 7.87241 17.8311
148 375 9.61543 7.70607 17.7862
148 425 9.64178 7.48397 17.574
148 475 9.72631 7.32645 17.4327
148 525 9.95681 7.24092 17.6533
148 575 10.259 7.16178 17.7956
148 625 10.5808 7.04521 17.8516
148 675 10.4684 6.77645 17.5929
148 725 10.4943 6.53833 17.4722
148 775 10.5573 6.27747 17.1507
148 825 10.4829 5.95549 16.7164
148 875 10.7357 5.77326 16.9129
150 25 6.8369 6.58526 13.7193
150 75 7.98952 7.59031 15.8808
150 125 8.4091 7.76337 16.4982
150 175 8.73495 7.83034 16.9025
150 225 9.17309 7.94513 17.4443
150 275 9.54756 8.00278 17.9514
150 325 9.71711 7.93891 18.1207
150 375 9.81302 7.7815 18.0463
150 425 10.0316 7.68277 18.1376
150 475 10.4306 7.72094 18.5229
150 525 10.8529 7.71329 19.0987
150 575 11.2211 7.67344 19.3215
150 625 11.3959 7.51728 19.3137
150 675 11.8996 7.41356 19.5112
150 725 12.3953 7.32963 19.9657
150 775 12.6462 7.30788 20.3876
150 825 12.9477 7.21847 20.5925
152 25 7.14717 6.59433 13.9794
152 75 8.74927 7.66889 16.5943
152 125 8.88201 7.79111 17.1155
152 175 9.11876 7.75297 17.3546
152 225 9.26493 7.68891 17.3994
152 275 9.46131 7.61308 17.514
152 325 9.67128 7.48852 17.6396
152 375 9.74301 7.33721 17.5215
152 425 9.7729 7.1515 17.3002
152 475 9.89233 6.93648 17.2562
152 525 10.1466 6.81711 17.2748
152 575 10.3654 6.7722 17.5369
152 625 11.018 6.68856 17.8402
152 675 10.9665 6.57587 17.8267
152 725 11.334 6.45458 18.161
152 775 11.6129 6.34863 18.3593
152 825 11.8011 6.06637 18.6205
154 25 7.30859 6.47372 14.1001
154 75 8.59123 7.42639 16.4761
154 125 8.96333 7.58737 16.993
154 175 9.21665 7.58134 17.1878
154 225 9.81333 7.77998 18.0124
154 275 10.3894 7.9976 18.8798
154 325 10.7866 8.09225 19.4112
154 375 11.1659 8.00898 19.7081
154 425 11.4115 7.91105 19.8153
154 475 11.69 7.8206 19.9783
154 525 12.0053 7.70043 20.1655
154 575 11.9907 7.5116 20.0051
154 625 12.0046 7.14759 19.5859
154 675 11.8544 6.84768 19.0339
154 725 11.774 6.45967 18.5499
154 775 11.8883 6.18041 18.3971
156 25 7.27481 6.90314 14.5152
156 75 8.4998 7.91167 16.657
156 125 8.96916 8.10647 17.4028
156 175 9.3529 8.16943 17.8675
156 225 9.68136 8.21579 18.2655
156 275 9.89667 8.13528 18.4054
156 325 10.0932 8.06287 18.5352
156 375 10.4363 8.01074 18.9019
156 425 11.2801 8.08689 19.5244
156 475 11.3204 8.07308 19.8449
156 525 11.6022 7.9925 19.9549
156 575 11.8135 7.79832 20.0407
156 625 12.1475 7.70086 20.2384
156 675 12.3104 7.45182 20.2647
156 725 12.7817 7.37058 20.6598
158 25 7.86117 7.00772 15.2184
158 75 9.53905 8.296 18.2896
158 125 9.9667 8.49897 18.9368
158 175 10.4832 8.63909 19.5962
158 225 10.8161 8.60684 19.8163
158 275 11.1351 8.58646 20.2263
158 325 11.4464 8.49683 20.3499
158 375 11.7134 8.27337 20.3365
158 425 11.9307 8.24031 20.4379
158 475 12.0631 7.94779 20.3853
158 525 12.7724 7.89496 20.7678
158 575 12.9503 7.83154 21.2413
158 625 13.3413 7.73782 21.5866
158 675 14.1046 7.61691 21.8564
160 25 8.18988 7.73165 16.1578
160 75 9.6815 8.86044 18.9408
160 125 10.0719 8.91899 19.3194
160 175 10.1346 8.66083 19.1634
160 225 10.5812 8.70628 19.7219
160 275 10.9974 8.72974 20.1837
160 325 11.4795 8.70385 20.6631
160 375 11.9059 8.65441 20.906
160 425 12.0835 8.50359 21.0296
160 475 12.7563 8.37204 21.2314
160 525 12.7967 8.21102 21.5132
160 575 13.1109 8.24372 21.606
160 625 13.0579 7.76266 22.0738
162 25 7.758 7.7141 15.7985
162 75 9.11615 8.81475 18.1791
162 125 9.42778 8.79796 18.6063
162 175 9.71398 8.64489 18.7976
162 225 10.1965 8.75253 19.3271
162 275 10.7096 8.70899 19.7377
162 325 10.8969 8.57751 19.9662
162 375 11.2046 8.49533 20.1488
162 425 11.4593 8.23161 20.1006
162 475 11.8497 7.90714 19.8349
162 525 12.4594 8.08477 20.9629
164 25 7.06461 6.75025 14.1748
164 75 8.50564 7.79309 16.3727
164 125 8.55048 7.79938 16.664
164 175 9.08463 7.90291 17.3189
164 225 9.39113 7.79411 17.5679
164 275 9.7868 7.89209 17.9064
164 325 9.91428 7.71199 18.1322
164 375 10.3992 7.55429 18.3745
164 425 10.7915 7.62378 18.893
164 475 11.4494 7.69991 19.5015
166 25 6.84766 6.36904 13.7005
166 75 8.01992 7.29861 15.7017
166 125 8.4136 7.47377 16.2345
166 175 8.63461 7.58067 16.6478
166 225 8.87194 7.64256 16.932
166 275 9.21365 7.69459 17.3727
166 325 9.4953 7.59455 17.311
166 375 9.47426 7.56406 17.4548
166 425 9.70771 7.51595 17.6461
166 475 10.0501 7.45319 17.8338
166 525 10.6943 7.47454 18.2151
166 575 10.5676 7.39329 18.3917
166 625 11.1853 7.38001 18.8017
166 675 11.6149 7.26994 18.9782
166 725 11.6416 7.18149 19.3232
166 775 11.9699 7.09128 19.4721
166 825 12.5047 6.89169 19.6052
166 875 12.5269 6.74147 19.5427
168 25 6.61974 6.83447 13.723
168 75 7.68823 7.85762 15.9031
168 125 8.01167 7.87034 16.2351
168 175 8.21546 7.95453 16.5095
168 225 8.56001 8.08059 17.0427
168 275 8.86042 8.14777 17.3969
168 325 9.08586 8.04005 17.4937
168 375 9.22331 7.87876 17.3922
168 425 9.06066 7.62489 17.0855
168 475 9.24778 7.48379 17.13
168 525 9.57845 7.54294 17.4552
168 575 9.85309 7.5326 17.8175
168 625 10.1964 7.47678 18.0943
168 675 10.5587 7.24319 17.8994
168 725 10.6137 7.44511 18.1945
168 775 11.2116 7.24353 18.8896
168 825 12.0312 7.3421 19.9039
168 875 12.6965 7.34582 20.3481
170 25 6.74375 6.3159 13.3414
170 75 7.66228 7.11914 15.0392
170 125 7.89795 7.11757 15.3625
170 175 8.18528 7.17045 15.6494
170 225 8.49255 7.25645 16.1308
170 275 8.77683 7.25733 16.4011
170 325 9.06384 7.2369 16.7148
170 375 9.22465 7.23535 16.8657
170 425 9.60593 7.15436 16.9997
170 475 9.84897 7.09765 17.1703
170 525 9.90434 7.06266 17.4371
170 575 10.2509 7.00912 17.5986
170 625 10.4275 6.90603 17.7269
170 675 10.4937 6.72327 17.5794
170 725 10.8988 6.6053 18.0076
170 775 11.3954 6.56525 18.3799
170 825 11.9906 6.53159 18.8296
170 875 12.7138 6.34387 19.0884
172 25 6.99571 6.29727 13.5931
172 75 8.04816 7.11425 15.4735
172 125 8.36735 7.23506 15.9469
172 175 8.6481 7.26365 16.3602
172 225 8.85227 7.2474 16.56
172 275 9.12096 7.20964 16.6912
172 325 9.28169 7.12084 16.7341
172 375 9.37645 7.02323 16.8087
172 425 9.61039 6.9367 16.9034
172 475 9.79334 6.83268 16.9722
172 525 10.0201 6.76796 17.1713
172 575 10.2009 6.73225 17.2367
172 625 10.4369 6.52101 17.3601
172 675 10.6461 6.4425 17.3966
172 725 11.5163 6.3688 17.8362
172 775 11.7178 6.3876 18.5183
172 825 12.3785 6.27622 18.9535
174 25 6.72226 6.25108 13.2032
174 75 7.91848 7.32062 15.5582
174 125 8.47562 7.57756 16.4345
174 175 8.97194 7.94331 17.2748
174 225 9.4043 7.94019 17.757
174 275 9.79434 8.06622 18.2858
174 325 10.0032 8.00759 18.4989
174 375 10.1122 7.83118 18.4602
174 425 10.3672 7.70456 18.468
174 475 10.3629 7.4625 18.2015
174 525 10.2128 7.17337 17.7569
174 575 10.0824 6.84393 17.2538
174 625 9.97551 6.53364 16.8262
174 675 10.2183 6.34098 16.9194
174 725 10.673 6.26389 17.2274
174 775 11.1579 6.36358 17.8175
174 825 11.4831 6.1145 18.0942
176 25 6.64311 6.66544 13.5909
176 75 7.79844 7.65624 15.8554
176 125 8.20685 7.8674 16.4357
176 175 8.6636 7.97123 17.0461
176 225 8.96424 8.03235 17.4904
176 275 9.11229 7.94582 17.5788
176 325 9.23224 7.80906 17.539
176 375 9.47975 7.76524 17.6912
176 425 9.88151 7.76503 18.2025
176 475 10.3129 7.75616 18.3932
176 525 10.4741 7.69877 18.5766
176 575 10.8168 7.59891 18.7191
176 625 10.8535 7.37708 18.6562
176 675 11.3661 7.29015 19.0784
176 725 11.7509 7.19224 19.3893
176 775 12.5507 6.92928 19.452
178 25 6.45815 6.78301 13.4705
178 75 7.42171 7.83635 15.5107
178 125 7.90141 8.04325 16.342
178 175 8.52708 8.34697 17.2206
178 225 9.06919 8.60889 18.0798
178 275 9.42098 8.7288 18.4961
178 325 9.55166 8.52969 18.4257
178 375 9.79392 8.49452 18.7249
178 425 10.2243 8.4807 19.1748
178 475 10.5572 8.47214 19.3894
178 525 10.7234 8.34608 19.4989
178 575 10.9321 8.20326 19.5368
178 625 11.2004 7.99072 19.7114
178 675 11.8238 7.98254 20.3053
178 725 12.2656 7.92114 20.7305
180 25 8.02972 7.76422 16.1366
180 75 9.44065 8.91945 18.78
180 125 9.71047 8.97695 19.0255
180 175 9.91373 9.03139 19.2017
180 225 10.4369 9.20544 19.9505
180 275 11.0273 9.29802 20.86
180 325 11.5755 9.48195 21.5604
180 375 12.5406 9.41863 21.8949
180 425 12.1951 9.27858 21.9281
180 475 12.7191 9.14443 22.0921
180 525 12.8807 8.98745 22.2507
180 575 12.9095 8.76878 22.1341
180 625 13.0556 8.31153 21.8104
180 675 12.7171 7.8393 21.0088
182 25 8.52561 8.01508 16.9451
182 75 9.81807 8.78532 19.0651
182 125 10.1165 8.62497 19.2164
182 175 10.2531 8.47278 19.1077
182 225 10.2973 8.42815 19.1577
182 275 10.5972 8.33713 19.4188
182 325 10.7307 8.19198 19.2913
182 375 11.1167 8.05157 19.3175
182 425 11.0759 7.86759 19.3377
182 475 11.2956 7.73849 19.3886
182 525 12.0476 7.6228 19.6681
182 575 12.1288 7.5237 20.0993
182 625 12.2938 7.176 19.8566
184 25 7.60334 8.05407 16.0615
184 75 8.82326 8.95221 18.2194
184 125 9.33608 8.95571 18.7919
184 175 9.60315 9.00579 19.0337
184 225 9.76216 8.91714 19.1361
184 275 10.0033 8.79882 19.2473
184 325 10.0721 8.55691 18.9272
184 375 10.3233 8.42986 19.0838
184 425 10.5547 8.30582 19.2329
184 475 11.0292 8.19182 19.7231
184 525 11.4311 8.13019 19.9051
186 25 7.72874 7.33883 15.3864
186 75 9.26644 8.51117 18.308
186 125 9.98889 8.62858 19.1956
186 175 10.2868 8.6921 19.4488
186 225 10.5428 8.70846 19.7501
186 275 10.8619 8.71523 19.9941
186 325 11.1461 8.64896 20.2184
186 375 11.5886 8.44889 20.6118
186 425 12.0797 8.426 20.9659
186 475 13.1019 8.39849 21.7785
