0 0.947219
1 1.02614
2 0.998891
3 1.05798
4 1.00496
5 0.999226
6 0.982161
7 1.08155
8 0.90156
9 0.796829
10 1
11 1
12 0.938739
13 1.01435
14 1.00566
15 0.997974
16 1.04053
17 1.02
18 0.984326
19 0.974403
20 1.01699
21 1
22 1
23 1
24 0.919232
25 1.00635
26 0.961891
27 1.01903
28 0.992523
29 1.04818
30 0.951413
31 1.01051
32 1.02532
33 1.06563
34 1
35 1
36 0.957115
37 0.885684
38 0.984203
39 0.955489
40 1.00693
41 0.982227
42 0.988728
43 1.01215
44 0.947772
45 0.980852
46 1
47 0.996548
48 0.978624
49 0.972312
50 0.906852
51 0.964004
52 0.989294
53 0.966852
54 0.961142
55 0.999988
56 1.0089
57 0.985041
58 0.932303
59 1.00426
60 0.999475
61 0.977736
62 0.986258
63 0.954215
64 1.00227
65 0.928082
66 0.964234
67 0.986576
68 1.04411
69 1.01718
70 0.958902
71 0.941028
72 0.981158
73 0.957776
74 0.953955
75 0.916553
76 0.976332
77 0.993029
78 1.00895
79 0.991041
80 1.11671
81 0.955219
82 0.946885
83 0.955052
84 0.963278
85 0.947579
86 0.936469
87 0.971706
88 0.964604
89 0.97281
90 0.995155
91 1.05682
